…
  data %>% 
    anti_join(tibble("code_insee" = codes_apres), by = "code_insee") %>% 
    bind_rows(avant, apres) %>% 
    arrange(annee, code_insee, sexe, prenom)
}

modifier_historique_prenoms(prenoms %>% filter(prenom == "CLAUDE"),
                            code_avant = "78",
                            codes_apres = c("78", "91", "95"),
                            annee_limite = 1968,
                            props = prop_oise)
```

    ## # A tibble: 10,602 × 5
    ##      sexe prenom annee code_insee nombre
    ##    <fctr>  <chr> <int>      <chr>  <dbl>
    ## 1       M CLAUDE  1900         01     41
    ## 2       M CLAUDE  1900         03     44
    ## 3       M CLAUDE  1900         13     12
    ## 4       M CLAUDE  1900         17      4
    ## 5       M CLAUDE  1900         21      9
    ## 6       M CLAUDE  1900         25      6
    ## 7       M CLAUDE  1900         26      3
    ## 8       M CLAUDE  1900         29     12
    ## 9       M CLAUDE  1900         38      8
    ## 10      M CLAUDE  1900         39      8
    ## # ... with 10,592 more rows
…
